{
  "project_info": {
    "project_number": "9105327030",
    "firebase_url": "https://vtctests-c23d0.firebaseio.com",
    "project_id": "vtctests-c23d0",
    "storage_bucket": "vtctests-c23d0.appspot.com"
  },
  "client": [
    {
      "client_info": {
        "mobilesdk_app_id": "1:9105327030:android:c08baf55fbf90232",
        "android_client_info": {
          "package_name": "koval.vtc.ua.vtctests"
        }
      },
      "oauth_client": [
        {
          "client_id": "9105327030-i62jo39lr67c29ibptt9arnfitgfeci6.apps.googleusercontent.com",
          "client_type": 1,
          "android_info": {
            "package_name": "koval.vtc.ua.vtctests",
            "certificate_hash": "5a1d333cd3d1f89c5b8831cbbb229d468e0b7b30"
          }
        },
        {
          "client_id": "9105327030-kmisfk56jk24ql581btrr9oaetlf5a7q.apps.googleusercontent.com",
          "client_type": 3
        }
      ],
      "api_key": [
        {
          "current_key": "AIzaSyB03kmTl7ojhI139iEkFZeXRLGm8HDdHNk"
        }
      ],
      "services": {
        "analytics_service": {
          "status": 1
        },
        "appinvite_service": {
          "status": 2,
          "other_platform_oauth_client": [
            {
              "client_id": "9105327030-kmisfk56jk24ql581btrr9oaetlf5a7q.apps.googleusercontent.com",
              "client_type": 3
            }
          ]
        },
        "ads_service": {
          "status": 2
        }
      }
    }
  ],
  "configuration_version": "1"
}